{
  "label": "装備",
  "mapping": {},
  "entries": {
    "MechaMan Smart Glove": {
      "name": "メカマン・スマートグローブ",
      "description": "<p>\n  A biking glove that comes with a subdermal grip pre-installed* which requires\n  a neural link to use. Has 1 additional cyberarm option slot. Any options\n  stored in the Cyberhand or meat hand are inaccessible while the Smart Glove is\n  being worn.<br /><em\n    >*Subdermal Grip must be added and installed manually after acquiring the\n    glove, this effectively consumes one of the option slots.</em\n  >\n</p>\n"
    },
    "AirWell 50": {
      "name": "エアウェル50",
      "description": "<p>Produces enough water to sustain a person. For more information, see Black Chrome Page 48.</p>"
    },
    "Banshee Microphone": {
      "name": "バンシー・マイクロフォン",
      "description": "<p>Wireless Microphone Headset. Gives the User a +2 bonus to Play Instrument (Singing) Skill Checks while worn. Doesn't stack with other bonuses to Play Instrument. For additional information, see Black Chrome Page 40.</p>"
    },
    "ChipVault": {
      "name": "チップヴォールト",
      "description": "<p>Can hold up to 8 pieces of Chipware. Chipware stored inside are immune to EMP effects. For more information, see Black Chrome Page 44.</p>"
    },
    "CO2 Tank": {
      "name": "CO2タンク",
      "description": "<p>A CO2 tank designed for usage with the Masetto AirRider armor. Must be replaced after every usage. Refer to full item description on BC pg. 33.</p>"
    },
    "Doberman 500": {
      "name": "ドーベルマン500",
      "description": "<p>Canine Personal Drone that can be linked to an Agent.&nbsp;<br>Refer to its rules on Page 46 of Black Chrome.</p>"
    },
    "Drink Master 3000": {
      "name": "ドリンクマスター 3000",
      "description": "<p>Can make 10 beverages out of a 3000 beverages library before needing to be refilled. Can also make Smash. For more information, see Black Chrome Page 42.</p>"
    },
    "EL-F4-NT Linear Frame": {
      "name": "EL-F4-NT リニア・フレーム",
      "description": "<p>Exoskeleton. Increases BODY to 12 while equipped. No changes to your HP or Deathsave. Has pre-installed techtools. (See Black Chrome pg. 55 for more details.)</p>"
    },
    "Fūma Kotarō Linear Frame": {
      "name": "\"風魔小太郎\" リニア・フレーム",
      "description": "<p>Exoskeleton.</p>\n<ul>\n<li>Requires 2 Interface Plugs</li>\n<li>Increases BODY to 12 while plugged in</li>\n<li>Does not affect HP or Deathsave</li>\n<li>Stealth +2</li>\n</ul>\n<p>Comes with two Excellent Quality Exotic Heavy Melee Weapons and one Excellent Quality Exotic Light Melee Weapon pre-installed*.</p>\n<p>See Black Chrome pg. 52 for more details.</p>\n<p><em>* Must be manually added.</em></p>"
    },
    "Jeeves Executive Garment Bag": {
      "name": "ジーブス・エグゼクティブ・ガーメントバッグ",
      "description": "<p>Bag that can repair one piece of fashion or armor at a time. For more information, see Black Chrome Page 43.</p>"
    },
    "Laser Light Electric Guitar": {
      "name": "レーザー・ライト・エレキギター",
      "description": "<p>Electric Guitar that gives the User a +1 to their Play Instrument (Guitar) Skill Check. This guitar also counts as one installation of Light Tattoo Fashionware while worn. For more information, see Black Chrome Page 41.</p>"
    },
    "LF-001 SWAT Linear Frame": {
      "name": "LF-001 SWAT リニア・フレーム",
      "description": "<p>Exoskeleton. Requires 2 Interface Plugs. Increases BODY to 12 while plugged in. No changes to your HP or Deathsave. Ignores the normal movement penalty for climbing and swimming. (See Black Chrome pg. 53 for more details.)</p>"
    },
    "Mr. Biscuit Multi-Food Processor": {
      "name": "Mr. ビスケット・マルチフード・プロセッサ",
      "description": "<p>Can sustain a group of up to 10 people when in the Outskirts. For more information, see Black Chrome Page 49.</p>"
    },
    "Nitro Ultra9": {
      "name": "ニトロ・ウルトラ9",
      "description": "<p>Can be poured into a Vehicle's tank to refill it as an Action. Gives bonuses to movement at the expense of safety. For more information, see Black Chrome Page 49.</p>"
    },
    "One Touch Habitat": {
      "name": "ワンタッチ・ハビタット",
      "description": "<p>Provides protection from Exposure. Counts as Sleeping in the Wilderness or as Sleeping on the Streets. For more information, see Black Chrome Page 48.</p>"
    },
    "Porta-Printer": {
      "name": "ポータプリンター",
      "description": "<p>Miniature Workshop. Allows a Tech to use Upgrade and Fabrication Experstise anywhere as long as they have techtools. For more information, see Black Chrome Page 43.</p>"
    },
    "RapiDeploy Sheath": {
      "name": "ラピッディプロイ・シース",
      "description": "<p>Gives the User a +2 bonus to their Conceal/Reveal Skill Check if used to conceal a weapon already capable of concealement. For more information, see Black Chrome Page 47.</p>"
    },
    "Shower•in•a•Can": {
      "name": "シャワー・イン•ア・カン",
      "description": "<p>Spray Deodorant. Desinfects and deodorize. One use per can. For more information, see Black Chrome Page 38.</p>"
    },
    "Sonic Boom Amp": {
      "name": "ソニックブーム・アンプ",
      "description": "<p>While linked to an instrument, the User can take an Action to make everyone nearby make a Resist Torture/Drugs Check. For more information, see Black Chrome Page 40.</p>"
    },
    "SovOil Industrial Lubricant": {
      "name": "ソヴオイル工業用潤滑剤",
      "description": "<p>Lubricant in a helpfully sized can. For more information, see Black Chrome Page 56.</p>"
    },
    "SovOil Medical Lubricant": {
      "name": "ソヴオイル医療用潤滑剤",
      "description": "<p>Lubricant in a helpfully sized can. For more information, see Black Chrome Page 56.</p>"
    },
    "SovOil Personal Lubricant": {
      "name": "ソヴオイル個人用潤滑剤",
      "description": "<p>Lubricant in a helpfully sized can. For more information, see Black Chrome Page 56.</p>"
    },
    "Streetcase": {
      "name": "ストリートケース",
      "description": "<p>Can carry many easily accessible items that YOU need to stay safe. For more information, see Black Chrome Page 47.</p>"
    },
    "Triti-Fizz": {
      "name": "トライティ＝フィズ",
      "description": "<p>North America's favorite soft drink. For more information, see Black Chrome Page 124.</p>"
    },
    "Typhoid Speaker": {
      "name": "タイフォイド・スピーカー",
      "description": "<p>When linked to a KillStrom Sonic Boom Amp, increases the DV of the Resist Torture/Drugs Check. For more information, see Black Chrome Page 41.</p>"
    },
    "Universal Aqualung": {
      "name": "ユニヴァーサル・アクアラング",
      "description": "<p>When worn, User can breathe underwater as long as within 10 m/yards of the surface. For more information, see Black Chrome Page 42.</p>"
    },
    "Vermilion Linear Frame": {
      "name": "ヴァーミリオン・リニア・フレーム",
      "description": "<p>Exoskeleton. Requires 2 Interface Plugs. Increases BODY to 12 while plugged in. No changes to your HP or Deathsave. &nbsp;No movement penalty for jumping. While running your movement is increased by 6m/yds. (See Black Chrome pg. 54 for more details.)</p>"
    },
    "WorldSat Aerial Sphere": {
      "name": "ワールドサット・エアリアル・スフィアー",
      "description": "<p>When set up, provides access to a Citinet when within 50 miles of the city or of another set up WorldSat Aerial Sphere that is connected to the Citinet. For more information, see Black Chrome Page 50.</p>"
    }
  }
}