{
  "label": "Kleidung",
  "mapping": {},
  "entries": {
    "Holo-Wear": {
      "name": "Holo-Kleidung",
      "description": "<p>\nHolografische Kleidung, die durch EMP-Angriffe für eine Minute deaktiviert werden kann. Zwischen gekauften Stilen kann mit einer Aktion gewechselt werden.\n</p>\n"
    }
  }
}