{
  "label": "Улучшения",
  "mapping": {},
  "entries": {
    "4Tify": {
      "name": "На6вие",
      "description": "<p>Приложение для агента.</p>\n<p>Определяет слабые места в жилище. Или в укрытии…</p>"
    },
    "City Database": {
      "name": "База данных города",
      "description": "<p>Приложение для агента.</p>\n<p>Бонус +1 ко всем проверкам навыка «Знание местности» по поводу сообществ города.</p>"
    },
    "Digital Gladiator": {
      "name": "Цифровой гладиатор",
      "description": "<p>Приложение для агента.</p>\n<p>Может быть тебе лучше мутузиться онлайн, чем на улицах…</p>\n<p>Правила создания Цифрового гладиатора, управления им и ведения поединков можно найти в Чёрном хроме в соответствующем разделе.</p>"
    },
    "MedScan": {
      "name": "МедСкан",
      "description": "<p>Приложение для агента.</p>\n<p>Требуется доступ к Ситинету. МедСкан соединит вас с удалённым специалистом Trauma Team, но сколько-нибудь полезная помощь стоит денег.</p>\n<p>За дополнительную плату можно нанять удалённого специалиста Trauma Team, чтобы он проинструктировал проведение медицинской процедуры продолжительностью до четырёх часов.</p>\n<p>Правила стоимости найма и доступных процедур можно найти в Чёрном хроме в соответствующем разделе.</p>"
    },
    "NCPD Crime Database": {
      "name": "База досье преступлений",
      "description": "<p>Приложение для агента.</p>\n<p>Требуется доступ к Ситинету. Позволяет пользователю получить доступ к открытым данным о преступлениях.</p>\n"
    }
  }
}