{
  "label": "Micro Chrome",
  "mapping": {
    "dvTable": "system.tableSD"
  },
  "entries": {
    "Superflash Jacket": {
      "name": "Veste Superflash",
      "description": "<p>Une belle veste portant une surprise ; en utilisant une action, toute personne portant cette veste peut consommer une batterie pour émettre une lumière aveuglante. Les règles complètes peuvent être trouvées dans Micro Chrome sur la page 1.</p>"
    },
    "Chipware Compartment": {
      "name": "Compartiment de Puces",
      "description": "<p>Vous permet de cacher jusqu'à puces, sans jet de compétence. Des règles complètes peuvent être trouvées dans Micro Chrome sur la page 1.</p>"
    },
    "Smart Lens": {
      "name": "Lentille intelligente",
      "description": "<p>Donne à un utilisateur une seule option de Cyberoeil Peut utiliser une lentille intelligente par œil.</p>"
    },
    "MicroCutie by HelloCutie": {
      "name": "MicroCutie by HelloCutie",
      "description": "<p>\n  An excellent quality pistol with a unique Hypurrburst™ mode fire mode*. The\n  weapon purrs when used. Hypurrburst™ is disabled if less than 4 bullets are in\n  the clip.\n</p>\n<p>When in Hypurrburst™ mode, the following applies</p>\n<ul>\n  <li>MicroCutie is ROF 1</li>\n  <li>Purrs audibly</li>\n  <li>Fires a single shot, drains clip, and does 4d6 damage</li>\n  <li>Cannot be used to make aimed shots</li>\n</ul>\n<p>\n  <em\n    >*Special fire mode not currently supported; will need to be manually\n    applied</em\n  >\n</p>\n",
      "dvTable": "DV Pistol"
    }
  }
}